player,wingspan,height,dws,pos
Andre Drummond,90.25,81.75,5.7,C
Ben Simmons,83.5,82,5,PG
Anthony Davis,89.5,81.25,4.9,PF
Robert Covington,85.75,78.25,4.5,SF
Russell Westbrook,79.75,74.25,4.5,PG
Clint Capela,88.5,83,4.1,C
Victor Oladipo,81.25,75.25,4,SG
Jayson Tatum,83,80,4,SF
Paul George,83.25,79.75,3.9,SF
Rudy Gobert,92.5,84.5,3.9,C
Dwight Howard,88.5,81,3.9,C
Jusuf Nurkic,86,83,3.9,C
Kyle Anderson,86.75,79.5,3.8,SF
Joel Embiid,89,84,3.8,C
James Harden,82.75,76,3.8,SG
Al Horford,84.75,80,3.8,C
Donovan Mitchell,82,73.25,3.8,SG
Ricky Rubio,81,76,3.8,PG
Giannis Antetokounmpo,87,83,3.6,PF
Joe Ingles,82.25,79.75,3.6,SF
LaMarcus Aldridge,88.75,82,3.5,C
Derrick Favors,88,80.75,3.5,C
Josh Richardson,82,78,3.5,SF
Draymond Green,85.25,77.75,3.4,PF
DeAndre Jordan,90,81.75,3.4,C
Dejounte Murray,81.5,77,3.4,PG
Terry Rozier,80.25,72.5,3.4,PG
Karl-Anthony Towns,87.5,84,3.4,C
Pau Gasol,88,84,3.3,C
Al-Farouq Aminu,87.25,79.25,3.2,PF
Jaylen Brown,83.75,77.25,3.2,SG
DeMarcus Cousins,89.75,81.5,3.2,C
Thaddeus Young,83.5,77.75,3.2,PF
Kyle Lowry,76,73,3.1,PG
Otto Porter,85.5,79.5,3.1,SF
Steven Adams,88.5,82.75,3,C
Serge Ibaka,88,82,3,PF
LeBron James,84.25,79.25,3,PF
P.J. Tucker,84,77,3,PF
Jonas Valanciunas,90,83,3,C
Hassan Whiteside,91,82.5,3,C
Kevin Durant,88.75,81,2.9,PF
Danny Green,82,77.25,2.9,SG
Jrue Holiday,79,75.25,2.9,SG
Nikola Jokic,87,83,2.9,C
C.J. McCollum,78,75,2.9,SG
Trevor Ariza,86,79,2.8,SF
DeMar DeRozan,81,77.5,2.8,SG
James Johnson,84.75,79,2.8,PF
Dario Saric,82,82,2.8,PF
Kentavious Caldwell-Pope,80,76.5,2.7,SG
Kyrie Irving,76,73.75,2.7,PG
Damian Lillard,79.75,73.75,2.7,PG
Kelly Olynyk,81.75,82.75,2.7,PF
Chris Paul,76.25,71.75,2.7,PG
Marc Gasol,88,85,2.6,C
Julius Randle,84,79.75,2.6,C
Carmelo Anthony,84,78.25,2.5,PF
Lonzo Ball,80.5,78,2.5,PG
Aron Baynes,86.5,84,2.5,C
Bradley Beal,80,75.25,2.5,SG
Eric Bledsoe,79.5,72.25,2.5,PG
Ed Davis,84,81,2.5,C
Tobias Harris,83,78.5,2.5,PF
T.J. McConnell,72,74,2.5,PG
Pascal Siakam,87.25,80.25,2.5,PF
Marcus Smart,81.25,74,2.5,SG
Myles Turner,88,81.75,2.5,C
Marcin Gortat,87.5,83,2.4,C
Stanley Johnson,83.5,77,2.4,SF
Jakob Poeltl,86.75,84.25,2.4,C
Justise Winslow,82.25,76.5,2.4,PF
Goran Dragic,79,76,2.3,PG
Tyler Johnson,78,76,2.3,PG
Kyle Kuzma,84.25,80,2.3,PF
Khris Middleton,82.75,78.75,2.3,SF
Larry Nance,85.5,79.5,2.3,C
Kelly Oubre,86.25,77.75,2.3,SF
Nikola Vucevic,88.5,82.25,2.3,C
Willie Cauley-Stein,87,83.25,2.2,C
John Henson,89,81,2.2,C
Marcus Morris,82,79,2.2,PF
Dirk Nowitzki,85,83,2.2,C
Domantas Sabonis,82.5,82,2.2,C
Rudy Gay,87,79,2.1,PF
Enes Kanter,85.5,81.75,2.1,C
Luc Mbah a Moute,86.5,77.75,2.1,PF
Patty Mills,74,71.25,2.1,PG
Markieff Morris,82.75,79.75,2.1,PF
Kyle O'Quinn,88.75,80.5,2.1,C
Dwight Powell,84.5,81.5,2.1,C
Evan Turner,80,77.75,2.1,SF
Delon Wright,79.5,76.25,2.1,PG
Kent Bazemore,83.5,77,2,SG
John Collins,83.25,80.25,2,PF
Aaron Gordon,83.75,79.5,2,PF
Rondae Hollis-Jefferson,86,77.5,2,SF
Amir Johnson,85,82,2,C
Cory Joseph,77.5,74,2,PG
Shabazz Napier,75.25,71,2,PG
Ish Smith,77,71,2,PG
Lance Stephenson,82.5,76.5,2,SG
Fred VanVleet,74,72,2,PG
Kemba Walker,75.5,71.5,2,PG
Taurean Prince,83.5,78.5,2,SF
Bam Adebayo,87,82,1.9,C
Harrison Barnes,83.25,79,1.9,PF
Stephen Curry,75.5,74,1.9,PG
Dewayne Dedmon,88,82,1.9,C
Kris Dunn,81.5,75,1.9,PG
Wayne Ellington,78.5,76.25,1.9,SG
Jerami Grant,86.75,78.5,1.9,PF
Ersan Ilyasova,85.25,79.75,1.9,PF
Jeremy Lamb,83,76,1.9,SG
Brook Lopez,89.5,83.25,1.9,C
Daniel Theis,83,81,1.9,C
Marvin Williams,87.5,79,1.9,PF
Will Barton,81.75,77,1.8,SG
Nicolas Batum,85,80,1.8,SG
Bismack Biyombo,91,81,1.8,C
Jimmy Butler,79.5,78,1.8,SG
DeMarre Carroll,82,78.25,1.8,SF
Darren Collison,75,72.25,1.8,PG
Eric Gordon,81,74,1.8,SG
Blake Griffin,83.25,80.5,1.8,PF
Mario Hezonja,82,80,1.8,SF
Brandon Ingram,87,81,1.8,SF
Nikola Mirotic,85,82,1.8,PF
Royce O'Neale,82,78,1.8,SF
Mason Plumlee,83,83.25,1.8,C
Kristaps Porzingis,88.5,87,1.8,PF
J.J. Redick,75.25,77,1.8,SG
Klay Thompson,81,77.75,1.8,SG
Ekpe Udoh,88.5,80.75,1.8,C
Ryan Anderson,81,82,1.7,PF
Taj Gibson,88,80.5,1.7,PF
Maurice Harkless,84,79.25,1.7,SF
Wesley Johnson,85,78.25,1.7,SF
Rajon Rondo,81,73,1.7,PG
Dennis Smith,75,74,1.7,PG
David West,88.25,80.25,1.7,C
OG Anunoby,86.25,78.25,1.6,SF
Bojan Bogdanovic,82,79,1.6,SF
Corey Brewer,80.25,78,1.6,SF
Alec Burks,82,77,1.6,SG
Jae Crowder,81.25,76.75,1.6,SF
Manu Ginobili,80,78,1.6,SG
Justin Holiday,85,79,1.6,SG
Andre Iguodala,83,77.75,1.6,SF
Jonas Jerebko,85,81,1.6,PF
Michael Kidd-Gilchrist,84,77.75,1.6,SF
Caris LeVert,82,77.75,1.6,SF
Kevin Love,83.25,79.75,1.6,C
Lauri Markkanen,83,84,1.6,PF
Wesley Matthews,79,77,1.6,SF
Greg Monroe,86.25,81.75,1.6,C
E'Twaun Moore,81.5,74.5,1.6,SG
Eric Moreland,88,82,1.6,PF
Thabo Sefolosha,86,79,1.6,SF
Dwyane Wade,82.75,75.75,1.6,SG
Andrew Wiggins,84,80,1.6,SF
Jarrett Allen,89.25,81,1.5,C
Michael Beasley,84.25,79,1.5,PF
Marquese Chriss,84.25,80.75,1.5,PF
Yogi Ferrell,75,72,1.5,SG
Gary Harris,78.75,74.5,1.5,SG
Josh Hart,80.25,75.75,1.5,SG
Buddy Hield,81.25,75.75,1.5,SG
Rodney Hood,80.5,79.25,1.5,SG
Kosta Koufos,88,85,1.5,C
C.J. Miles,81,78,1.5,SF
Bobby Portis,86,81.5,1.5,PF
Anthony Tolliver,86.5,79,1.5,PF
Denzel Valentine,82.75,76,1.5,SG
John Wall,81.25,74.75,1.5,PG
Jordan Bell,83.75,79,1.4,C
Davis Bertans,82,82,1.4,PF
Reggie Bullock,80.75,77.75,1.4,SF
Allen Crabbe,83.25,77.25,1.4,SG
Spencer Dinwiddie,80.25,76.5,1.4,PG
Luke Kennard,77.25,76.5,1.4,SG
Ian Mahinmi,84,82,1.4,C
David Nwaba,83,76,1.4,SG
Zaza Pachulia,84,83,1.4,C
Patrick Patterson,85.25,80,1.4,PF
Elfrid Payton,80,74.5,1.4,PG
Jeff Teague,79.5,72.25,1.4,PG
Marco Belinelli,80,77,1.3,SG
Trevor Booker,81.75,78.25,1.3,PF
Mario Chalmers,82,73,1.3,PG
Zach Collins,85,82.25,1.3,C
Pat Connaughton,80,76,1.3,SG
Dante Cunningham,83,79,1.3,SF
Gorgui Dieng,87.5,81.75,1.3,C
Raymond Felton,76.25,71.5,1.3,PG
Bryn Forbes,77,75,1.3,SG
JaMychal Green,86.25,80,1.3,PF
Montrezl Harrell,88.25,79,1.3,C
Richaun Holmes,85.5,80.25,1.3,C
Joe Johnson,81,78.75,1.3,SF
Frank Kaminsky,83,83.75,1.3,PF
Alex Len,87.5,85,1.3,C
Kevon Looney,87.5,80,1.3,C
Salah Mejri,86,85,1.3,C
Semi Ojeleye,81.75,77.25,1.3,PF
Andre Roberson,83,78.25,1.3,SG
Tomas Satoransky,79.25,78.5,1.3,SG
Avery Bradley,79.25,74,1.2,SG
Wilson Chandler,83.5,80,1.2,SF
Jordan Clarkson,80,75.25,1.2,SG
Tyreke Evans,83.25,76,1.2,PG
Josh Jackson,82,80,1.2,SF
Tyus Jones,77,72.5,1.2,PG
Maxi Kleber,82.75,82,1.2,PF
Courtney Lee,79,77,1.2,SG
Trey Lyles,85.5,81,1.2,PF
Jarell Martin,81,80,1.2,PF
Jamal Murray,78.5,77,1.2,PG
Norman Powell,82.75,75,1.2,SG
Zach Randolph,88,81,1.2,PF
Noah Vonleh,88.25,80,1.2,PF
Lou Williams,77,74,1.2,SG
Quincy Acy,86.75,78.5,1.1,PF
Nemanja Bjelica,83,82,1.1,PF
Bogdan Bogdanovic,83,78,1.1,SG
Dillon Brooks,78,77,1.1,SF
Michael Carter-Williams,79.25,76.75,1.1,PG
James Ennis,83.5,77.75,1.1,SF
De'Aaron Fox,78,76,1.1,PG
Tim Hardaway,79,78,1.1,SG
Nene Hilario,88.75,82,1.1,C
Shane Larkin,70.75,70.25,1.1,PG
Thon Maker,87,83.75,1.1,C
JaVale McGee,90,83,1.1,C
Paul Millsap,85.5,78.25,1.1,PF
Frank Ntilikina,84,77,1.1,PG
Tony Parker,76,74,1.1,PG
Jonathon Simmons,79.5,78,1.1,SG
J.J. Barea,70.75,70.75,1,PG
Tarik Black,87,80,1,C
Omri Casspi,81.25,79.75,1,SF
Tim Frazier,74.5,73,1,PG
Jerian Grant,79.5,75.25,1,PG
Gerald Green,81.75,78,1,SG
Josh Huestis,85,79,1,PF
Skal Labissiere,86.5,82.5,1,PF
Shelvin Mack,79.5,73,1,PG
Nerlens Noel,87.75,82,1,C
Lucas Nogueira,90,84,1,C
Austin Rivers,79.25,75.5,1,SG
Dennis Schroder,79.75,73,1,PG
Mike Scott,82.75,79.25,1,PF
Alex Abrines,78,77,0.9,SG
Jerryd Bayless,75.5,73.75,0.9,SG
Vince Carter,84,79,0.9,SF
Evan Fournier,79.5,79,0.9,SF
Langston Galloway,80,74,0.9,SG
Devin Harris,79.5,73.75,0.9,PG
Joe Harris,78,76.75,0.9,SG
George Hill,81,73.25,0.9,PG
Reggie Jackson,84,75,0.9,PG
Shaun Livingston,83,78.25,0.9,PG
Darius Miller,81,78,0.9,SF
Mike Muscala,85,82.25,0.9,C
D'Angelo Russell,81.75,77,0.9,PG
J.R. Smith,82,77.5,0.9,SG
Garrett Temple,82,77,0.9,SG
Sindarius Thornwell,82,75.5,0.9,SG
Nick Young,84,77,0.9,SG
Tyler Zeller,84,83.25,0.9,C
D.J. Augustin,75.5,70,0.8,PG
Dragan Bender,86,85,0.8,PF
Tyson Chandler,87,83.5,0.8,C
Ian Clark,78.5,75,0.8,SG
Deyonta Davis,86.5,81.25,0.8,C
Cheick Diallo,88.5,79.5,0.8,PF
Tyler Ennis,79.25,73,0.8,PG
Jeff Green,85.25,79,0.8,PF
Jonathan Isaac,85.25,83,0.8,PF
Al Jefferson,86.5,80.5,0.8,C
Patrick McCaw,82,77.25,0.8,SG
Jodie Meeks,76.5,75,0.8,SG
Abdel Nader,85,78,0.8,SF
Brandon Paul,82.25,74.75,0.8,SG
Dion Waiters,79.25,74.5,0.8,SG
T.J. Warren,82.25,79,0.8,SF
Justin Anderson,83.75,77.25,0.7,SF
Malcolm Brogdon,82.5,75.75,0.7,PG
Sterling Brown,82,78,0.7,SG
Treveon Graham,82.5,76,0.7,SG
Andrew Harrison,81,76.5,0.7,PG
Willy Hernangomez,85.5,83,0.7,C
Wesley Iwundu,85,77.5,0.7,SF
Jarrett Jack,79.5,74.5,0.7,PG
Joffrey Lauvergne,81.5,83,0.7,C
DeAndre Liggins,83,77,0.7,SG
Robin Lopez,89,84,0.7,C
Timothe Luwawu-Cabarrot,83,79,0.7,SF
Ben McLemore,79.75,75.5,0.7,SG
Emmanuel Mudiay,80.5,77,0.7,PG
Jameer Nelson,74.5,71,0.7,PG
Miles Plumlee,84.75,82.5,0.7,C
Tony Snell,83.5,78,0.7,SG
Tristan Thompson,85.25,79.5,0.7,C
Cody Zeller,82.75,82.75,0.7,C
Dwayne Bacon,82,76.75,0.6,SG
Khem Birch,85,79.5,0.6,C
Devin Booker,80.25,76.5,0.6,SG
Alex Caruso,78,78,0.6,PG
Sam Dekker,83.5,79.75,0.6,PF
Malcolm Delaney,78,76,0.6,PG
Jawun Evans,77.5,70.75,0.6,PG
Channing Frye,86.5,81.5,0.6,C
Kyle Korver,81.5,78.25,0.6,SG
Frank Mason,75.25,71,0.6,PG
Doug McDermott,81.25,78.25,0.6,SF
Raul Neto,74,74,0.6,PG
Jabari Parker,84,80,0.6,PF
Jason Terry,77,74,0.6,SG
Lance Thomas,87,80,0.6,PF
Paul Zipser,83,80,0.6,SF
DeAndre' Bembry,80,78,0.5,SF
Kyle Collinsworth,78.5,79,0.5,SF
Cristiano Felicio,84,81,0.5,C
Terrance Ferguson,80.75,77.5,0.5,SG
Justin Jackson,82.75,79,0.5,SF
Zach LaVine,80.25,76.5,0.5,SG
Kawhi Leonard,87,78,0.5,SF
Boban Marjanovic,92,87,0.5,C
Malik Monk,78,76,0.5,SG
Emeka Okafor,88,80.75,0.5,C
Ivan Rabb,85.5,80.75,0.5,PF
Willie Reed,87,81,0.5,C
Terrence Ross,79.25,78,0.5,SG
Marreese Speights,86,82,0.5,C
Isaiah Taylor,75.5,75,0.5,PG
Milos Teodosic,79,77,0.5,PG
Tyler Ulis,74,68.75,0.5,PG
Tyrone Wallace,82,78,0.5,PG
C.J. Williams,80,78,0.5,SG
Brandan Wright,87.75,80.75,0.5,PF
Ivica Zubac,88,85,0.5,C
Luke Babbitt,83.25,79.5,0.4,SF
Ron Baker,81.75,75.25,0.4,SG
Dwight Buycks,78,75,0.4,PG
Quinn Cook,76,72.25,0.4,PG
Torrey Craig,83,78,0.4,SF
Tyler Dorsey,77.25,75,0.4,SG
Jared Dudley,79,77,0.4,PF
Henry Ellenson,86.25,82,0.4,PF
Kenneth Faried,84,78,0.4,PF
Markelle Fultz,81,76,0.4,SG
Danilo Gallinari,84,81,0.4,SF
Shaquille Harrison,80,76,0.4,PG
Myke Henry,80,78,0.4,SF
Damion Lee,81,78,0.4,SG
Jordan Mickey,87.25,79,0.4,PF
Johnny O'Bryant,85.5,80,0.4,PF
Cedi Osman,85,80,0.4,SF
Chandler Parsons,81.5,80.75,0.4,SF
Cameron Payne,79.25,72.75,0.4,PG
JaKarr Sampson,83,80,0.4,SF
Briante Weber,79,74,0.4,PG
Troy Williams,80.25,77.75,0.4,SF
Joe Young,77,74,0.4,PG
Malik Beasley,79,75.5,0.3,SG
Patrick Beverley,77.5,73,0.3,SG
Andrew Bogut,87,83,0.3,C
Trey Burke,77.5,71.75,0.3,PG
Jose Calderon,78,75,0.3,PG
Tyler Cavanaugh,83,81,0.3,PF
Jamal Crawford,82,76.5,0.3,SG
Damyean Dotson,81,76.5,0.3,SG
Dante Exum,81.25,78,0.3,PG
Dorian Finney-Smith,83.75,78.5,0.3,PF
Mike James,76,73,0.3,PG
Sean Kilpatrick,79,74.5,0.3,SG
Luke Kornet,86,84,0.3,PF
T.J. Leaf,83,82,0.3,PF
Meyers Leonard,87,83.75,0.3,C
Rodney McGruder,77.5,77,0.3,SG
Timofey Mozgov,88,85,0.3,C
Jahlil Okafor,89,83,0.3,C
Glenn Robinson,82,79,0.3,SF
Ramon Sessions,76.25,74,0.3,PG
Jason Smith,82.75,82.75,0.3,C
Nik Stauskas,79.75,77.25,0.3,SG
Caleb Swanigan,87,79.5,0.3,PF
Isaiah Thomas,73.75,68.75,0.3,PG
Guerschon Yabusele,86,80,0.3,PF
Arron Afflalo,81,77,0.2,SG
Tony Allen,81,75.5,0.2,SF
Ryan Arcidiacono,75,75,0.2,PG
Omer Asik,86,83,0.2,C
Jabari Bird,80,78,0.2,SG
MarShon Brooks,85,77,0.2,SG
Antonius Cleveland,83,78,0.2,SG
Mike Conley,77.75,71,0.2,PG
Matthew Dellavedova,76,76,0.2,PG
Aaron Harrison,80,78,0.2,SG
Solomon Hill,81.5,79,0.2,SF
Brice Johnson,84.5,81,0.2,PF
Dakari Johnson,86,83,0.2,C
Derrick Jones,83,78,0.2,SF
Jake Layman,81.25,80,0.2,SF
Johnathan Motley,88,79.75,0.2,PF
Shabazz Muhammad,83,76.75,0.2,SF
Gary Payton,80,75,0.2,PG
Zhou Qi,91.75,85.25,0.2,C
Davon Reed,84,76.5,0.2,SG
Wayne Selden,82.5,76.25,0.2,SG
Iman Shumpert,81.5,76.25,0.2,SG
Kobi Simmons,78,75.25,0.2,PG
Julyan Stone,82,78,0.2,SG
Derrick Walton Jr.,74.5,71,0.2,PG
Travis Wear,83,81,0.2,SF
Derrick White,79.5,75.25,0.2,PG
Isaiah Whitehead,80.75,75.25,0.2,PG
Jamil Wilson,83,79,0.2,SF
Ante Zizic,87,84,0.2,C
Cole Aldrich,88.75,81,0.1,C
Kadeem Allen,81.25,73,0.1,PG
Darrell Arthur,82.75,79.5,0.1,PF
Jamel Artis,82,77.5,0.1,SG
Wade Baldwin,82,76,0.1,PG
Antonio Blakeney,79.5,76,0.1,SG
Aaron Brooks,76,70,0.1,PG
Bobby Brown,76,71,0.1,PG
Lorenzo Brown,79,76,0.1,PG
Thomas Bryant,90,81.5,0.1,C
Bruno Caboclo,91,81,0.1,SF
Isaiah Canaan,76.5,71,0.1,PG
Matt Costello,85.5,82,0.1,C
Milton Doyle,79,76,0.1,SG
Kay Felder,74.5,68.25,0.1,PG
Josh Gray,76.75,73,0.1,PG
Udonis Haslem,83,79.75,0.1,C
Nigel Hayes,87.25,78.25,0.1,SF
Juan Hernangomez,84,81,0.1,PF
Isaiah Hicks,84.5,79.25,0.1,PF
Darrun Hilliard,80,78,0.1,SG
John Holland,80.5,77,0.1,SF
Danuel House,80,79,0.1,SG
R.J. Hunter,82.5,76.5,0.1,SG
Andre Ingram,78,75,0.1,SG
Demetrius Jackson,77.5,72,0.1,PG
Brandon Jennings,79,73,0.1,PG
Damian Jones,87.75,82.25,0.1,C
Jalen Jones,83,79,0.1,SF
Furkan Korkmaz,79,79,0.1,SG
Jon Leuer,84,82,0.1,PF
Josh Magette,76,73,0.1,PG
Chris McCullough,87.25,80.25,0.1,PF
Alfonzo McKinnie,81,80,0.1,SF
Malcolm Miller,84,78,0.1,SF
Jaylen Morris,79,77,0.1,SG
Georges Niang,82,78.75,0.1,PF
Joakim Noah,85.25,82,0.1,C
Georgios Papagiannis,90,86,0.1,C
Quincy Pondexter,84,78,0.1,SF
Alex Poythress,84,80,0.1,PF
Rodney Purvis,76,76,0.1,SG
Xavier Rathan-Mayes,77,76,0.1,SG
Malachi Richardson,84,76.75,0.1,SG
Derrick Rose,80,73.5,0.1,PG
Mirza Teletovic,83,81,0.1,PF
Rashad Vaughn,79,75.75,0.1,SG
Andrew White,82,79,0.1,SF
Okaro White,83,80,0.1,PF
Damien Wilkins,84,76.5,0.1,SF
Alan Williams,85.5,80,0.1,PF
D.J. Wilson,87,80.75,0.1,PF
Jeff Withey,86,82.75,0.1,C
Ike Anigbogu,90.25,80.5,0,C
Vander Blue,78,75.5,0,SG
Joel Bolomboy,85.75,79.5,0,PF
Chris Boucher,87.5,82,0,PF
Tony Bradley,89,81.25,0,C
Anthony Brown,83.5,79,0,SF
Markel Brown,80.75,74.5,0,SG
Nicolas Brussino,82,80,0,SF
Gian Clavell,79,76,0,SG
Nick Collison,85.5,80.75,0,PF
Charles Cooke,83.5,77,0,SG
Jack Cooley,83,81,0,PF
Jordan Crawford,79,75,0,SG
Troy Daniels,79,76,0,SG
Luol Deng,84.5,79,0,SF
PJ Dozier,83,77.25,0,PG
Larry Drew,78,72,0,PG
Jarell Eddie,82,79,0,SF
Jeremy Evans,89,81,0,SF
Marcus Georges-Hunt,81,77,0,SG
Jonathan Gibson,77,74,0,PG
Daniel Hamilton,81,78.25,0,SG
Gordon Hayward,79.75,78.75,0,SF
Reggie Hearn,80,78,0,SG
Scotty Hopson,82.5,77.75,0,SG
Vince Hunter,83,78.75,0,PF
Aaron Jackson,75,76,0,PG
Richard Jefferson,84,79.25,0,SF
Omari Johnson,83,79,0,PF
Mindaugas Kuzminskas,83,81,0,SF
Walt Lemon Jr.,78.5,76,0,PG
Jeremy Lin,77,75,0,PG
Tyler Lydon,84,80.25,0,PF
Mangok Mathiang,84,82,0,C
James Michael McAdoo,85,81,0,PF
Erik McCree,82.5,80,0,SF
Trey McKinney-Jones,78,76,0,SG
Josh McRoberts,85,80,0,PF
Naz Mitrou-Long,78,76,0,SG
Luis Montero,85,80,0,SG
Ben Moore,82.5,80,0,PF
Monte Morris,76,73.25,0,PG
Xavier Munford,76.5,75,0,SG
Chinanu Onuaku,87,82,0,C
Marcus Paige,78.25,72.5,0,PG
Justin Patton,86.5,84,0,C
Adreian Payne,88,81,0,PF
Kendrick Perkins,88,82,0,C
London Perrantes,75,74,0,PG
Alec Peters,82.75,79.25,0,PF
Marshall Plumlee,81,85,0,C
Jacob Pullen,76,73,0,PG
Tim Quarterman,81.5,78,0,SG
Devin Robinson,84.25,80,0,SF
Xavier Silas,80.5,77,0,SG
Kyle Singler,82.1,79.5,0,SF
Josh Smith,84,79,0,PF
David Stockton,75.5,71,0,PG
Edmond Sumner,80,77,0,PG
Marquis Teague,78.5,74,0,PG
Jameel Warney,85.75,80,0,PF
James Webb,82,81,0,SF
Jacob Wiley,84,79,0,PF
Derrick Williams,85.5,81,0,PF
Matt Williams,79,77,0,SG
Nate Wolters,75.75,75.5,0,PG
James Young,84,77.25,0,SG
